[
	{
		"name": "background-semiop",
		"caption": "Фон на просвет",
		"svg_selector": ".js-background-semiop",
		"icon_svg_selector": ".js-background-semiop-ico"
	},
	{
		"name": "background",
		"caption": "Фон",
		"svg_selector": ".js-background"
	},
	{
		"name": "beauty-dish",
		"caption": "Портретная тарелка",
		"svg_selector": ".js-beauty-dish"
	},
	{
		"name": "black-flag",
		"caption": "Черный флаг",
		"svg_selector": ".js-black-flag",
		"icon_svg_selector": ".js-black-flag-ico"
	},
	{
		"name": "blinds",
		"caption": "Жалюзи",
		"svg_selector": ".js-blinds"
	},
	{
		"name": "camera",
		"caption": "Камера",
		"svg_selector": ".js-camera"
	},
	{
		"name": "dawn",
		"caption": "Дневной свет (восход)",
		"svg_selector": ".js-dawn"
	},
	{
		"name": "daylight",
		"caption": "Дневной свет",
		"svg_selector": ".js-daylight"
	},
	{
		"name": "diffuser",
		"caption": "Отражатель",
		"svg_selector": ".js-diffuser",
		"icon_svg_selector": ".js-diffuser-ico"
	},
	{
		"name": "dusk",
		"caption": "Дневной свет (закат)",
		"svg_selector": ".js-dusk"
	},
	{
		"name": "fan",
		"caption": "Вентилятор",
		"svg_selector": ".js-fan"
	},
	{
		"name": "filter-red",
		"caption": "Красный фильтр",
		"svg_selector": ".js-filter-red"
	},
	{
		"name": "filter-green",
		"caption": "Зелёный фильтр",
		"svg_selector": ".js-filter-green"
	},
	{
		"name": "filter-blue",
		"caption": "Синий фильтр",
		"svg_selector": ".js-filter-blue"
	},
	{
		"name": "flash",
		"caption": "Накамерная вспышка",
		"svg_selector": ".js-flash"
	},
	{
		"name": "flashlight",
		"caption": "Фонарик",
		"svg_selector": ".js-flashlight"
	},
	{
		"name": "lightbox",
		"caption": "Лайт-бокс",
		"svg_selector": ".js-lightbox",
		"icon_svg_selector": ".js-lightbox-ico"
	},
	{
		"name": "lightbulb",
		"caption": "Лампа накаливания",
		"svg_selector": ".js-lightbulb"
	},
	{
		"name": "photo-umb",
		"caption": "Фотозонт",
		"svg_selector": ".js-photo-umb"
	},
	{
		"name": "reflector-w-grill",
		"caption": "Рефлектор с сотами",
		"svg_selector": ".js-reflector-w-grill"
	},
	{
		"name": "reflector-w-shutters",
		"caption": "Рефлектор со шторками",
		"svg_selector": ".js-reflector-w-shutters"
	},
	{
		"name": "reflector",
		"caption": "Рефлектор",
		"svg_selector": ".js-reflector"
	},
	{
		"name": "snoot",
		"caption": "Тубус",
		"svg_selector": ".js-snoot"
	},
	{
		"name": "soft-box",
		"caption": "Софт-бокс",
		"svg_selector": ".js-soft-box"
	},
	{
		"name": "stencil",
		"caption": "Трафарет",
		"svg_selector": ".js-stencil",
		"icon_svg_selector": ".js-stencil-ico"
	},
	{
		"name": "tripod-snoot",
		"caption": "Тубус на журавле",
		"svg_selector": ".js-tripod-snoot"
	},
	{
		"name": "window",
		"caption": "Окно",
		"svg_selector": ".js-window",
		"icon_svg_selector": ".js-window-ico"
	}
]
